[gd_scene load_steps=3 format=2]

[ext_resource path="res://scripts/HorizontalWall.gd" type="Script" id=1]

[sub_resource type="RectangleShape2D" id=1]
extents = Vector2( 1, 1 )

[node name="HorizontalWall" type="Area2D"]
position = Vector2( 2.13083, 2.32454 )
gravity = 0.0
script = ExtResource( 1 )

[node name="CollisionShape2D" type="CollisionShape2D" parent="."]
shape = SubResource( 1 )
[connection signal="body_entered" from="." to="." method="_on_HorizontalWall_body_entered"]
