[gd_scene load_steps=5 format=2]

[ext_resource path="res://scripts/Paddle.gd" type="Script" id=1]
[ext_resource path="res://arts/paddle.png" type="Texture" id=2]

[sub_resource type="SpriteFrames" id=1]
animations = [ {
"frames": [ ExtResource( 2 ) ],
"loop": true,
"name": "default",
"speed": 5.0
} ]

[sub_resource type="RectangleShape2D" id=2]
extents = Vector2( 13.073, 100.143 )

[node name="Paddle" type="Area2D"]
position = Vector2( 10, 100 )
gravity = 0.0
script = ExtResource( 1 )

[node name="AnimatedSprite" type="AnimatedSprite" parent="."]
frames = SubResource( 1 )

[node name="CollisionShape2D" type="CollisionShape2D" parent="."]
shape = SubResource( 2 )
[connection signal="body_entered" from="." to="." method="_on_Paddle_body_entered"]
[connection signal="input_event" from="." to="." method="_on_Paddle_input_event"]
